{
  "posts": [
    {
      "id": 1,
      "title": "json-server",
      "author": "typicode"
    },
    {
      "title": "Demo",
      "author": "Demo",
      "descriptions": "Demo",
      "id": 2
    },
    {
      "title": "All Good",
      "author": "there",
      "descriptions": "hey",
      "id": 3
    },
    {
      "title": "Man",
      "author": "see",
      "descriptions": "asd",
      "id": 4
    },
    {
      "title": "we",
      "author": "asd",
      "descriptions": "asd",
      "id": 5
    },
    {
      "title": "asd",
      "author": "asd",
      "descriptions": "ad",
      "id": 6
    },
    {
      "title": "Load",
      "author": "a",
      "descriptions": "a",
      "id": 7
    },
    {
      "title": "Load",
      "author": "a",
      "descriptions": "a",
      "id": 8
    },
    {
      "title": "sad",
      "author": "asd",
      "descriptions": "asd",
      "id": 9
    },
    {
      "title": "a",
      "author": "s",
      "descriptions": "s",
      "id": 10
    },
    {
      "title": "s",
      "author": "",
      "descriptions": "ss",
      "id": 11
    },
    {
      "title": "sadasd",
      "author": "sd",
      "descriptions": "sdsad",
      "id": 12
    }
  ],
  "comments": [
    {
      "id": 1,
      "body": "some comment",
      "postId": 1
    }
  ],
  "profile": {
    "name": "typicode"
  }
}
